[gd_resource type="ORMMaterial3D" load_steps=3 format=3 uid="uid://d4c7as6j0sfck"]

[ext_resource type="Texture2D" uid="uid://b5m4jh0us62n1" path="res://assets/materials/tile_C/tile_C_albedo.png" id="1"]
[ext_resource type="Texture2D" uid="uid://c7g1nlqrnivf7" path="res://assets/materials/tile_C/tile_C_normal.png" id="3"]

[resource]
albedo_texture = ExtResource("1")
normal_enabled = true
normal_texture = ExtResource("3")
texture_filter = 0
