[gd_scene load_steps=5 format=3 uid="uid://bovv40cw80c16"]

[ext_resource type="Script" path="res://characters/damage_field/damage_field.gd" id="1_u0vhs"]

[sub_resource type="StandardMaterial3D" id="StandardMaterial3D_fxips"]
albedo_color = Color(0.678431, 0.203922, 0.101961, 0.392157)
roughness = 0.2
emission_enabled = true
emission = Color(0.749438, 0.287474, 0.109679, 1)

[sub_resource type="CylinderMesh" id="CylinderMesh_jvkcx"]
material = SubResource("StandardMaterial3D_fxips")
top_radius = 2.0
bottom_radius = 3.0
height = 1.0

[sub_resource type="CylinderShape3D" id="CylinderShape3D_hbwx6"]
margin = 0.0
height = 1.0
radius = 3.0

[node name="DamageField" type="Node3D"]
script = ExtResource("1_u0vhs")

[node name="MeshInstance3D" type="MeshInstance3D" parent="."]
transform = Transform3D(1, 0, 0, 0, 1, 0, 0, 0, 1, 0, 0.5, 0)
mesh = SubResource("CylinderMesh_jvkcx")

[node name="Area3D" type="Area3D" parent="."]

[node name="CollisionShape3D" type="CollisionShape3D" parent="Area3D"]
transform = Transform3D(1, 0, 0, 0, 1, 0, 0, 0, 1, 0, 0.5, 0)
shape = SubResource("CylinderShape3D_hbwx6")

[node name="Timer" type="Timer" parent="."]

[connection signal="body_entered" from="Area3D" to="." method="_on_area_3d_body_entered"]
[connection signal="body_exited" from="Area3D" to="." method="_on_area_3d_body_exited"]
[connection signal="timeout" from="Timer" to="." method="_on_timer_timeout"]
