[gd_scene load_steps=3 format=3 uid="uid://e65gj8nlf2y2"]

[ext_resource type="PackedScene" uid="uid://coo0lqldi5st8" path="res://assets/models/architecture/raw/ceiling_A.blend" id="1_kbujq"]
[ext_resource type="Material" uid="uid://b31tcfq8eal1e" path="res://assets/materials/test/test_green.tres" id="2_ly4sh"]

[node name="ceiling_A" instance=ExtResource("1_kbujq")]

[node name="ceiling_A" parent="." index="0"]
surface_material_override/0 = ExtResource("2_ly4sh")
