[gd_scene load_steps=3 format=3 uid="uid://cjthr2qpkxej5"]

[ext_resource type="PackedScene" uid="uid://bdie4hua3ib6c" path="res://assets/models/architecture/raw/floor_A.blend" id="1_v1kfp"]
[ext_resource type="Material" uid="uid://btlmp66wa7b0d" path="res://assets/materials/tile_B/tile_B.tres" id="2_bquhk"]

[node name="floor_B" instance=ExtResource("1_v1kfp")]

[node name="floor_A" parent="." index="0"]
material_override = ExtResource("2_bquhk")
surface_material_override/0 = ExtResource("2_bquhk")
