[gd_scene load_steps=5 format=3 uid="uid://dc8mmyaw133k"]

[ext_resource type="PackedScene" uid="uid://duwi0vsegky8y" path="res://assets/models/architecture/raw/tunnel_entrance_A.blend" id="1_nabjc"]
[ext_resource type="Material" uid="uid://blu3itacomoa" path="res://assets/materials/test/test_red.tres" id="2_hksed"]
[ext_resource type="Material" uid="uid://qncr32kr8bcj" path="res://assets/materials/test/test_black.tres" id="3_3ioxy"]
[ext_resource type="Material" uid="uid://c3gutjnv3b36" path="res://assets/materials/test/test_blue.tres" id="4_ppc0m"]

[node name="tunnel_entrance_A" instance=ExtResource("1_nabjc")]

[node name="tunnel_entrance_A" parent="." index="0"]
surface_material_override/0 = ExtResource("2_hksed")
surface_material_override/1 = ExtResource("3_3ioxy")
surface_material_override/2 = ExtResource("3_3ioxy")
surface_material_override/3 = ExtResource("4_ppc0m")
