[gd_scene load_steps=3 format=3 uid="uid://bqmi1fvhu7t7i"]

[ext_resource type="PackedScene" uid="uid://b7kppi8j54w1r" path="res://assets/models/architecture/raw/walkway_A.blend" id="1_qub13"]
[ext_resource type="Material" uid="uid://b31tcfq8eal1e" path="res://assets/materials/test/test_green.tres" id="2_6p3e7"]

[node name="walkway_A" instance=ExtResource("1_qub13")]

[node name="walway_A" parent="." index="0"]
material_override = ExtResource("2_6p3e7")
