[gd_scene load_steps=2 format=3 uid="uid://c4irujtvisyoi"]

[ext_resource type="PackedScene" uid="uid://dre4u4ysf2006" path="res://assets/models/props/raw/box_A.blend" id="1_cpao2"]

[node name="box_A" instance=ExtResource("1_cpao2")]
