[gd_scene load_steps=5 format=3 uid="uid://c4pppal5e88j6"]

[ext_resource type="PackedScene" uid="uid://ibpihr6fuw12" path="res://assets/models/props/raw/cart_A.blend" id="1_afqbd"]
[ext_resource type="Material" uid="uid://d4c7as6j0sfck" path="res://assets/materials/tile_C/tile_C.tres" id="2_e01kd"]
[ext_resource type="Material" uid="uid://bjpe1dhxoentc" path="res://assets/materials/metal_A/metal_A.tres" id="3_g14jt"]
[ext_resource type="Material" uid="uid://d36oyqa28c7n" path="res://assets/materials/metal_C/metal_C.tres" id="4_s7x54"]

[node name="cart_A" instance=ExtResource("1_afqbd")]

[node name="cart_A" parent="." index="0"]
surface_material_override/0 = ExtResource("2_e01kd")
surface_material_override/1 = ExtResource("3_g14jt")

[node name="cart_A-wheels" parent="." index="1"]
surface_material_override/0 = ExtResource("4_s7x54")

[node name="cart_B-handles" parent="." index="2"]
surface_material_override/0 = ExtResource("2_e01kd")

[node name="cart_A-drawers" parent="." index="3"]
surface_material_override/0 = ExtResource("3_g14jt")
