[gd_resource type="Environment" load_steps=3 format=3 uid="uid://dctgsc6nktifh"]

[sub_resource type="ProceduralSkyMaterial" id="ProceduralSkyMaterial_beyfi"]

[sub_resource type="Sky" id="Sky_nt7ww"]
sky_material = SubResource("ProceduralSkyMaterial_beyfi")

[resource]
background_mode = 2
background_energy_multiplier = 0.35
sky = SubResource("Sky_nt7ww")
ambient_light_source = 3
ambient_light_color = Color(0.113725, 0, 0, 1)
ambient_light_sky_contribution = 0.58
