[gd_scene load_steps=4 format=3 uid="uid://cwso66wtt40qj"]

[ext_resource type="PackedScene" uid="uid://duoy2i0d2rygi" path="res://assets/models/architecture/floor_A.tscn" id="1_7444w"]
[ext_resource type="PackedScene" uid="uid://e65gj8nlf2y2" path="res://assets/models/architecture/ceiling_A.tscn" id="2_hfm2y"]
[ext_resource type="PackedScene" uid="uid://baq0lglp708tp" path="res://assets/models/architecture/wall_A.tscn" id="3_t62vu"]

[node name="corner_A" type="Node3D"]

[node name="floor_A" parent="." instance=ExtResource("1_7444w")]

[node name="ceiling_A" parent="." instance=ExtResource("2_hfm2y")]

[node name="wall_A" parent="." instance=ExtResource("3_t62vu")]
transform = Transform3D(1, 0, 0, 0, 1, 0, 0, 0, 1, 0, 0, -3)

[node name="wall_A2" parent="." instance=ExtResource("3_t62vu")]
transform = Transform3D(-4.37114e-08, 0, 1, 0, 1, 0, -1, 0, -4.37114e-08, -3, 0, 0)
