[gd_scene load_steps=6 format=3 uid="uid://cn87q4k8fmyup"]

[ext_resource type="Script" path="res://characters/robot1/gun/shot/shot.gd" id="1_5nulr"]

[sub_resource type="StandardMaterial3D" id="StandardMaterial3D_q0c4h"]
albedo_color = Color(0, 0.342514, 0.149379, 1)
roughness = 0.3
emission_enabled = true
emission = Color(0, 0.545258, 2.88785e-07, 1)

[sub_resource type="SphereMesh" id="SphereMesh_1ndfj"]
material = SubResource("StandardMaterial3D_q0c4h")
radius = 0.1
height = 0.2

[sub_resource type="SphereShape3D" id="SphereShape3D_qomyd"]
radius = 0.1

[sub_resource type="SphereShape3D" id="SphereShape3D_d80fb"]
radius = 0.15

[node name="Shot" type="RigidBody3D"]
gravity_scale = 0.0
script = ExtResource("1_5nulr")

[node name="circle" type="MeshInstance3D" parent="."]
mesh = SubResource("SphereMesh_1ndfj")

[node name="CollisionShape3D" type="CollisionShape3D" parent="."]
shape = SubResource("SphereShape3D_qomyd")
disabled = true

[node name="Area3D" type="Area3D" parent="."]

[node name="CollisionShape3D" type="CollisionShape3D" parent="Area3D"]
shape = SubResource("SphereShape3D_d80fb")

[node name="RemoveTimer" type="Timer" parent="."]
wait_time = 10.0
one_shot = true

[connection signal="body_entered" from="Area3D" to="." method="_on_area_3d_body_entered"]
[connection signal="timeout" from="RemoveTimer" to="." method="_on_remove_timer_timeout"]
